 16:58:56 up 21 min, 13 users,  load average: 2.00, 2.51, 2.14
 16:58:57 up 21 min, 13 users,  load average: 2.00, 2.51, 2.14
 16:58:58 up 21 min, 13 users,  load average: 2.00, 2.51, 2.14
 16:58:59 up 21 min, 13 users,  load average: 2.00, 2.51, 2.14
 16:58:59 up 21 min, 13 users,  load average: 2.00, 2.51, 2.14
 16:59:00 up 21 min, 13 users,  load average: 2.16, 2.54, 2.15
 16:59:01 up 21 min, 13 users,  load average: 2.16, 2.54, 2.15
 16:59:02 up 21 min, 13 users,  load average: 2.16, 2.54, 2.15
 16:59:03 up 21 min, 13 users,  load average: 2.16, 2.54, 2.15
 16:59:06 up 21 min, 13 users,  load average: 2.23, 2.54, 2.16
 16:59:07 up 21 min, 13 users,  load average: 2.23, 2.54, 2.16
 16:59:08 up 21 min, 13 users,  load average: 2.23, 2.54, 2.16
 16:59:09 up 21 min, 13 users,  load average: 2.23, 2.54, 2.16
 16:59:10 up 21 min, 13 users,  load average: 2.23, 2.54, 2.16
 16:59:11 up 21 min, 13 users,  load average: 2.29, 2.55, 2.16
 16:59:12 up 21 min, 13 users,  load average: 2.29, 2.55, 2.16
 16:59:12 up 21 min, 13 users,  load average: 2.29, 2.55, 2.16
 16:59:13 up 21 min, 13 users,  load average: 2.29, 2.55, 2.16
 16:59:14 up 21 min, 13 users,  load average: 2.29, 2.55, 2.16
 16:59:15 up 21 min, 13 users,  load average: 2.29, 2.55, 2.16
 16:59:16 up 21 min, 13 users,  load average: 2.27, 2.54, 2.16
 16:59:16 up 21 min, 13 users,  load average: 2.27, 2.54, 2.16
 16:59:17 up 21 min, 13 users,  load average: 2.27, 2.54, 2.16
 16:59:18 up 21 min, 13 users,  load average: 2.27, 2.54, 2.16
 16:59:19 up 21 min, 13 users,  load average: 2.27, 2.54, 2.16
 16:59:19 up 21 min, 13 users,  load average: 2.27, 2.54, 2.16
 16:59:20 up 21 min, 14 users,  load average: 2.49, 2.58, 2.17
 16:59:21 up 21 min, 14 users,  load average: 2.49, 2.58, 2.17
 16:59:22 up 21 min, 14 users,  load average: 2.49, 2.58, 2.17
 16:59:23 up 21 min, 14 users,  load average: 2.49, 2.58, 2.17
 16:59:24 up 21 min, 14 users,  load average: 2.49, 2.58, 2.17
 16:59:25 up 21 min, 14 users,  load average: 2.49, 2.58, 2.17
 16:59:25 up 22 min, 14 users,  load average: 2.45, 2.57, 2.17
 16:59:26 up 22 min, 14 users,  load average: 2.45, 2.57, 2.17
 16:59:27 up 22 min, 14 users,  load average: 2.45, 2.57, 2.17
 16:59:27 up 22 min, 14 users,  load average: 2.45, 2.57, 2.17
 16:59:28 up 22 min, 14 users,  load average: 2.45, 2.57, 2.17
 16:59:29 up 22 min, 14 users,  load average: 2.45, 2.57, 2.17
 16:59:29 up 22 min, 14 users,  load average: 2.45, 2.57, 2.17
 16:59:30 up 22 min, 14 users,  load average: 2.45, 2.57, 2.17
 16:59:31 up 22 min, 14 users,  load average: 2.41, 2.56, 2.17
 16:59:31 up 22 min, 14 users,  load average: 2.41, 2.56, 2.17
 16:59:32 up 22 min, 14 users,  load average: 2.41, 2.56, 2.17
 16:59:33 up 22 min, 14 users,  load average: 2.41, 2.56, 2.17
 16:59:33 up 22 min, 14 users,  load average: 2.41, 2.56, 2.17
 16:59:34 up 22 min, 14 users,  load average: 2.41, 2.56, 2.17
 16:59:35 up 22 min, 14 users,  load average: 2.41, 2.56, 2.17
 16:59:36 up 22 min, 14 users,  load average: 2.38, 2.55, 2.17
 16:59:36 up 22 min, 14 users,  load average: 2.38, 2.55, 2.17
 16:59:37 up 22 min, 14 users,  load average: 2.38, 2.55, 2.17
 16:59:38 up 22 min, 14 users,  load average: 2.38, 2.55, 2.17
 16:59:38 up 22 min, 14 users,  load average: 2.38, 2.55, 2.17
 16:59:39 up 22 min, 14 users,  load average: 2.38, 2.55, 2.17
 16:59:40 up 22 min, 14 users,  load average: 2.38, 2.55, 2.17
 16:59:40 up 22 min, 14 users,  load average: 2.27, 2.53, 2.17
 16:59:41 up 22 min, 14 users,  load average: 2.27, 2.53, 2.17
 16:59:42 up 22 min, 14 users,  load average: 2.27, 2.53, 2.17
 16:59:42 up 22 min, 14 users,  load average: 2.27, 2.53, 2.17
 16:59:43 up 22 min, 14 users,  load average: 2.27, 2.53, 2.17
 16:59:44 up 22 min, 14 users,  load average: 2.27, 2.53, 2.17
 16:59:45 up 22 min, 15 users,  load average: 2.27, 2.53, 2.17
 16:59:46 up 22 min, 15 users,  load average: 2.41, 2.55, 2.18
 16:59:46 up 22 min, 15 users,  load average: 2.41, 2.55, 2.18
 16:59:47 up 22 min, 15 users,  load average: 2.41, 2.55, 2.18
 16:59:48 up 22 min, 15 users,  load average: 2.41, 2.55, 2.18
 16:59:49 up 22 min, 15 users,  load average: 2.41, 2.55, 2.18
 16:59:49 up 22 min, 15 users,  load average: 2.41, 2.55, 2.18
 16:59:50 up 22 min, 15 users,  load average: 2.61, 2.59, 2.19
 16:59:51 up 22 min, 15 users,  load average: 2.61, 2.59, 2.19
 16:59:52 up 22 min, 15 users,  load average: 2.61, 2.59, 2.19
 16:59:53 up 22 min, 15 users,  load average: 2.61, 2.59, 2.19
 16:59:54 up 22 min, 15 users,  load average: 2.61, 2.59, 2.19
 16:59:55 up 22 min, 15 users,  load average: 2.61, 2.59, 2.19
 16:59:56 up 22 min, 15 users,  load average: 2.72, 2.61, 2.20
 16:59:57 up 22 min, 15 users,  load average: 2.72, 2.61, 2.20
 16:59:59 up 22 min, 15 users,  load average: 2.72, 2.61, 2.20
 17:00:00 up 22 min, 15 users,  load average: 2.72, 2.61, 2.20
 17:00:01 up 22 min, 15 users,  load average: 2.83, 2.64, 2.21
 17:00:01 up 22 min, 15 users,  load average: 2.83, 2.64, 2.21
 17:00:03 up 22 min, 15 users,  load average: 2.83, 2.64, 2.21
 17:00:04 up 22 min, 15 users,  load average: 2.83, 2.64, 2.21
 17:00:05 up 22 min, 15 users,  load average: 2.83, 2.64, 2.21
 17:00:05 up 22 min, 15 users,  load average: 2.84, 2.64, 2.21
 17:00:06 up 22 min, 15 users,  load average: 2.84, 2.64, 2.21
 17:00:07 up 22 min, 15 users,  load average: 2.84, 2.64, 2.21
 17:00:08 up 22 min, 15 users,  load average: 2.84, 2.64, 2.21
 17:00:09 up 22 min, 15 users,  load average: 2.84, 2.64, 2.21
 17:00:10 up 22 min, 15 users,  load average: 2.84, 2.64, 2.21
 17:00:11 up 22 min, 15 users,  load average: 2.93, 2.67, 2.22
 17:00:12 up 22 min, 15 users,  load average: 2.93, 2.67, 2.22
 17:00:13 up 22 min, 15 users,  load average: 2.93, 2.67, 2.22
 17:00:14 up 22 min, 15 users,  load average: 2.93, 2.67, 2.22
 17:00:14 up 22 min, 15 users,  load average: 2.93, 2.67, 2.22
 17:00:15 up 22 min, 15 users,  load average: 2.93, 2.67, 2.22
 17:00:15 up 22 min, 15 users,  load average: 2.86, 2.65, 2.22
 17:00:16 up 22 min, 15 users,  load average: 2.86, 2.65, 2.22
 17:00:17 up 22 min, 15 users,  load average: 2.86, 2.65, 2.22
 17:00:17 up 22 min, 15 users,  load average: 2.86, 2.65, 2.22
 17:00:18 up 22 min, 15 users,  load average: 2.86, 2.65, 2.22
 17:00:19 up 22 min, 15 users,  load average: 2.86, 2.65, 2.22
 17:00:19 up 22 min, 15 users,  load average: 2.86, 2.65, 2.22
 17:00:20 up 22 min, 15 users,  load average: 2.79, 2.64, 2.22
 17:00:21 up 22 min, 15 users,  load average: 2.79, 2.64, 2.22
 17:00:22 up 22 min, 15 users,  load average: 2.79, 2.64, 2.22
 17:00:23 up 22 min, 15 users,  load average: 2.79, 2.64, 2.22
 17:00:24 up 22 min, 15 users,  load average: 2.79, 2.64, 2.22
 17:00:24 up 22 min, 15 users,  load average: 2.79, 2.64, 2.22
 17:00:25 up 23 min, 15 users,  load average: 2.79, 2.64, 2.22
 17:00:26 up 23 min, 15 users,  load average: 2.64, 2.62, 2.21
 17:00:26 up 23 min, 15 users,  load average: 2.64, 2.62, 2.21
 17:00:27 up 23 min, 15 users,  load average: 2.64, 2.62, 2.21
 17:00:28 up 23 min, 15 users,  load average: 2.64, 2.62, 2.21
 17:00:28 up 23 min, 15 users,  load average: 2.64, 2.62, 2.21
 17:00:29 up 23 min, 15 users,  load average: 2.64, 2.62, 2.21
 17:00:30 up 23 min, 15 users,  load average: 2.64, 2.62, 2.21
 17:00:31 up 23 min, 15 users,  load average: 2.59, 2.61, 2.21
 17:00:31 up 23 min, 15 users,  load average: 2.59, 2.61, 2.21
 17:00:32 up 23 min, 15 users,  load average: 2.59, 2.61, 2.21
 17:00:33 up 23 min, 15 users,  load average: 2.59, 2.61, 2.21
 17:00:33 up 23 min, 15 users,  load average: 2.59, 2.61, 2.21
 17:00:34 up 23 min, 15 users,  load average: 2.59, 2.61, 2.21
 17:00:35 up 23 min, 15 users,  load average: 2.59, 2.61, 2.21
 17:00:35 up 23 min, 15 users,  load average: 2.55, 2.60, 2.21
 17:00:36 up 23 min, 15 users,  load average: 2.55, 2.60, 2.21
 17:00:37 up 23 min, 15 users,  load average: 2.55, 2.60, 2.21
 17:00:37 up 23 min, 15 users,  load average: 2.55, 2.60, 2.21
 17:00:38 up 23 min, 15 users,  load average: 2.55, 2.60, 2.21
 17:00:39 up 23 min, 15 users,  load average: 2.55, 2.60, 2.21
 17:00:39 up 23 min, 15 users,  load average: 2.55, 2.60, 2.21
 17:00:40 up 23 min, 15 users,  load average: 2.42, 2.57, 2.20
 17:00:41 up 23 min, 15 users,  load average: 2.42, 2.57, 2.20
 17:00:42 up 23 min, 15 users,  load average: 2.42, 2.57, 2.20
 17:00:42 up 23 min, 15 users,  load average: 2.42, 2.57, 2.20
 17:00:43 up 23 min, 15 users,  load average: 2.42, 2.57, 2.20
 17:00:44 up 23 min, 15 users,  load average: 2.42, 2.57, 2.20
 17:00:45 up 23 min, 15 users,  load average: 2.42, 2.57, 2.20
 17:00:45 up 23 min, 15 users,  load average: 2.47, 2.58, 2.21
 17:00:46 up 23 min, 15 users,  load average: 2.47, 2.58, 2.21
 17:00:47 up 23 min, 15 users,  load average: 2.47, 2.58, 2.21
 17:00:48 up 23 min, 15 users,  load average: 2.47, 2.58, 2.21
 17:00:48 up 23 min, 15 users,  load average: 2.47, 2.58, 2.21
 17:00:49 up 23 min, 15 users,  load average: 2.47, 2.58, 2.21
 17:00:50 up 23 min, 15 users,  load average: 2.47, 2.58, 2.21
 17:00:51 up 23 min, 15 users,  load average: 2.59, 2.60, 2.22
 17:00:52 up 23 min, 15 users,  load average: 2.59, 2.60, 2.22
 17:00:53 up 23 min, 15 users,  load average: 2.59, 2.60, 2.22
 17:00:53 up 23 min, 15 users,  load average: 2.59, 2.60, 2.22
 17:00:54 up 23 min, 15 users,  load average: 2.59, 2.60, 2.22
 17:00:55 up 23 min, 15 users,  load average: 2.59, 2.60, 2.22
 17:00:56 up 23 min, 15 users,  load average: 2.54, 2.59, 2.21
 17:00:57 up 23 min, 15 users,  load average: 2.54, 2.59, 2.21
 17:00:57 up 23 min, 15 users,  load average: 2.54, 2.59, 2.21
 17:00:58 up 23 min, 15 users,  load average: 2.54, 2.59, 2.21
 17:00:59 up 23 min, 15 users,  load average: 2.54, 2.59, 2.21
 17:00:59 up 23 min, 15 users,  load average: 2.54, 2.59, 2.21
 17:01:00 up 23 min, 15 users,  load average: 2.54, 2.59, 2.21
 17:01:01 up 23 min, 15 users,  load average: 2.58, 2.60, 2.22
 17:01:01 up 23 min, 15 users,  load average: 2.58, 2.60, 2.22
 17:01:02 up 23 min, 15 users,  load average: 2.58, 2.60, 2.22
 17:01:03 up 23 min, 15 users,  load average: 2.58, 2.60, 2.22
 17:01:04 up 23 min, 15 users,  load average: 2.58, 2.60, 2.22
 17:01:04 up 23 min, 15 users,  load average: 2.58, 2.60, 2.22
 17:01:05 up 23 min, 15 users,  load average: 2.58, 2.60, 2.22
 17:01:06 up 23 min, 15 users,  load average: 2.61, 2.60, 2.22
 17:01:06 up 23 min, 15 users,  load average: 2.61, 2.60, 2.22
 17:01:08 up 23 min, 15 users,  load average: 2.61, 2.60, 2.22
 17:01:09 up 23 min, 15 users,  load average: 2.61, 2.60, 2.22
 17:01:10 up 23 min, 15 users,  load average: 2.61, 2.60, 2.22
 17:01:10 up 23 min, 15 users,  load average: 2.56, 2.59, 2.22
 17:01:11 up 23 min, 15 users,  load average: 2.56, 2.59, 2.22
 17:01:12 up 23 min, 15 users,  load average: 2.56, 2.59, 2.22
 17:01:13 up 23 min, 15 users,  load average: 2.56, 2.59, 2.22
 17:01:13 up 23 min, 15 users,  load average: 2.56, 2.59, 2.22
 17:01:14 up 23 min, 15 users,  load average: 2.56, 2.59, 2.22
 17:01:15 up 23 min, 15 users,  load average: 2.56, 2.59, 2.22
 17:01:15 up 23 min, 15 users,  load average: 2.60, 2.60, 2.22
 17:01:16 up 23 min, 15 users,  load average: 2.60, 2.60, 2.22
 17:01:17 up 23 min, 15 users,  load average: 2.60, 2.60, 2.22
 17:01:17 up 23 min, 15 users,  load average: 2.60, 2.60, 2.22
 17:01:18 up 23 min, 15 users,  load average: 2.60, 2.60, 2.22
 17:01:19 up 23 min, 15 users,  load average: 2.60, 2.60, 2.22
 17:01:20 up 23 min, 15 users,  load average: 2.60, 2.60, 2.22
 17:01:20 up 23 min, 15 users,  load average: 2.55, 2.59, 2.22
 17:01:21 up 23 min, 15 users,  load average: 2.55, 2.59, 2.22
 17:01:22 up 23 min, 15 users,  load average: 2.55, 2.59, 2.22
 17:01:22 up 23 min, 15 users,  load average: 2.55, 2.59, 2.22
 17:01:23 up 23 min, 15 users,  load average: 2.55, 2.59, 2.22
 17:01:24 up 23 min, 15 users,  load average: 2.55, 2.59, 2.22
 17:01:25 up 23 min, 15 users,  load average: 2.55, 2.59, 2.22
 17:01:25 up 24 min, 15 users,  load average: 2.51, 2.58, 2.22
 17:01:26 up 24 min, 15 users,  load average: 2.51, 2.58, 2.22
 17:01:27 up 24 min, 15 users,  load average: 2.51, 2.58, 2.22
 17:01:28 up 24 min, 15 users,  load average: 2.51, 2.58, 2.22
 17:01:29 up 24 min, 15 users,  load average: 2.51, 2.58, 2.22
 17:01:30 up 24 min, 15 users,  load average: 2.51, 2.58, 2.22
 17:01:31 up 24 min, 15 users,  load average: 2.54, 2.58, 2.23
 17:01:31 up 24 min, 15 users,  load average: 2.54, 2.58, 2.23
 17:01:32 up 24 min, 15 users,  load average: 2.54, 2.58, 2.23
 17:01:33 up 24 min, 15 users,  load average: 2.54, 2.58, 2.23
 17:01:34 up 24 min, 15 users,  load average: 2.54, 2.58, 2.23
 17:01:35 up 24 min, 15 users,  load average: 2.54, 2.58, 2.23
 17:01:35 up 24 min, 15 users,  load average: 2.66, 2.61, 2.23
 17:01:36 up 24 min, 15 users,  load average: 2.66, 2.61, 2.23
 17:01:37 up 24 min, 15 users,  load average: 2.66, 2.61, 2.23
 17:01:37 up 24 min, 15 users,  load average: 2.66, 2.61, 2.23
 17:01:38 up 24 min, 15 users,  load average: 2.66, 2.61, 2.23
 17:01:39 up 24 min, 15 users,  load average: 2.66, 2.61, 2.23
 17:01:40 up 24 min, 15 users,  load average: 2.66, 2.61, 2.23
 17:01:41 up 24 min, 15 users,  load average: 2.77, 2.63, 2.24
 17:01:42 up 24 min, 15 users,  load average: 2.77, 2.63, 2.24
 17:01:43 up 24 min, 15 users,  load average: 2.77, 2.63, 2.24
 17:01:43 up 24 min, 15 users,  load average: 2.77, 2.63, 2.24
 17:01:44 up 24 min, 15 users,  load average: 2.77, 2.63, 2.24
 17:01:45 up 24 min, 15 users,  load average: 2.79, 2.64, 2.25
 17:01:46 up 24 min, 15 users,  load average: 2.79, 2.64, 2.25
 17:01:47 up 24 min, 15 users,  load average: 2.79, 2.64, 2.25
 17:01:47 up 24 min, 15 users,  load average: 2.79, 2.64, 2.25
 17:01:48 up 24 min, 15 users,  load average: 2.79, 2.64, 2.25
 17:01:49 up 24 min, 15 users,  load average: 2.79, 2.64, 2.25
 17:01:50 up 24 min, 15 users,  load average: 2.79, 2.64, 2.25
 17:01:51 up 24 min, 15 users,  load average: 2.88, 2.66, 2.26
 17:01:52 up 24 min, 15 users,  load average: 2.88, 2.66, 2.26
 17:01:53 up 24 min, 15 users,  load average: 2.88, 2.66, 2.26
 17:01:54 up 24 min, 15 users,  load average: 2.88, 2.66, 2.26
 17:01:55 up 24 min, 15 users,  load average: 2.88, 2.66, 2.26
 17:01:56 up 24 min, 15 users,  load average: 2.89, 2.66, 2.26
 17:01:57 up 24 min, 15 users,  load average: 2.89, 2.66, 2.26
 17:01:58 up 24 min, 15 users,  load average: 2.89, 2.66, 2.26
 17:01:59 up 24 min, 15 users,  load average: 2.89, 2.66, 2.26
 17:02:00 up 24 min, 15 users,  load average: 2.89, 2.66, 2.26
 17:02:01 up 24 min, 15 users,  load average: 2.98, 2.69, 2.27
 17:02:02 up 24 min, 15 users,  load average: 2.98, 2.69, 2.27
 17:02:03 up 24 min, 15 users,  load average: 2.98, 2.69, 2.27
 17:02:04 up 24 min, 15 users,  load average: 2.98, 2.69, 2.27
 17:02:05 up 24 min, 15 users,  load average: 3.38, 2.77, 2.30
 17:02:06 up 24 min, 15 users,  load average: 3.38, 2.77, 2.30
 17:02:08 up 24 min, 15 users,  load average: 3.38, 2.77, 2.30
 17:02:09 up 24 min, 15 users,  load average: 3.38, 2.77, 2.30
 17:02:10 up 24 min, 15 users,  load average: 3.38, 2.77, 2.30
 17:02:11 up 24 min, 15 users,  load average: 3.59, 2.83, 2.32
 17:02:13 up 24 min, 15 users,  load average: 3.59, 2.83, 2.32
 17:02:15 up 24 min, 15 users,  load average: 3.59, 2.83, 2.32
 17:02:19 up 24 min, 15 users,  load average: 3.54, 2.83, 2.32
 17:02:20 up 24 min, 15 users,  load average: 3.54, 2.83, 2.32
 17:02:21 up 24 min, 15 users,  load average: 3.82, 2.90, 2.35
 17:02:25 up 24 min, 15 users,  load average: 3.82, 2.90, 2.35
 17:02:26 up 25 min, 15 users,  load average: 3.67, 2.88, 2.35
 17:02:27 up 25 min, 14 users,  load average: 3.67, 2.88, 2.35
 17:02:29 up 25 min, 14 users,  load average: 3.67, 2.88, 2.35
 17:02:31 up 25 min, 14 users,  load average: 3.86, 2.93, 2.37
 17:02:32 up 25 min, 14 users,  load average: 3.86, 2.93, 2.37
 17:02:34 up 25 min, 14 users,  load average: 3.86, 2.93, 2.37
 17:02:35 up 25 min, 14 users,  load average: 3.86, 2.93, 2.37
 17:02:36 up 25 min, 14 users,  load average: 3.63, 2.90, 2.36
 17:02:36 up 25 min, 14 users,  load average: 3.63, 2.90, 2.36
 17:02:37 up 25 min, 14 users,  load average: 3.63, 2.90, 2.36
 17:02:38 up 25 min, 14 users,  load average: 3.63, 2.90, 2.36
 17:02:39 up 25 min, 14 users,  load average: 3.63, 2.90, 2.36
 17:02:39 up 25 min, 14 users,  load average: 3.63, 2.90, 2.36
 17:02:40 up 25 min, 14 users,  load average: 3.63, 2.90, 2.36
 17:02:41 up 25 min, 14 users,  load average: 3.42, 2.87, 2.35
 17:02:41 up 25 min, 14 users,  load average: 3.42, 2.87, 2.35
 17:02:42 up 25 min, 14 users,  load average: 3.42, 2.87, 2.35
 17:02:42 up 25 min, 14 users,  load average: 3.42, 2.87, 2.35
 17:02:43 up 25 min, 14 users,  load average: 3.42, 2.87, 2.35
 17:02:44 up 25 min, 14 users,  load average: 3.42, 2.87, 2.35
 17:02:44 up 25 min, 14 users,  load average: 3.42, 2.87, 2.35
 17:02:45 up 25 min, 14 users,  load average: 3.42, 2.87, 2.35
 17:02:46 up 25 min, 14 users,  load average: 3.31, 2.86, 2.35
 17:02:46 up 25 min, 14 users,  load average: 3.31, 2.86, 2.35
 17:02:47 up 25 min, 14 users,  load average: 3.31, 2.86, 2.35
 17:02:48 up 25 min, 14 users,  load average: 3.31, 2.86, 2.35
 17:02:49 up 25 min, 14 users,  load average: 3.31, 2.86, 2.35
 17:02:49 up 25 min, 14 users,  load average: 3.31, 2.86, 2.35
 17:02:50 up 25 min, 14 users,  load average: 3.31, 2.86, 2.35
 17:02:51 up 25 min, 14 users,  load average: 3.12, 2.83, 2.34
 17:02:51 up 25 min, 14 users,  load average: 3.12, 2.83, 2.34
 17:02:52 up 25 min, 14 users,  load average: 3.12, 2.83, 2.34
 17:02:52 up 25 min, 14 users,  load average: 3.12, 2.83, 2.34
 17:02:53 up 25 min, 14 users,  load average: 3.12, 2.83, 2.34
 17:02:54 up 25 min, 14 users,  load average: 3.12, 2.83, 2.34
 17:02:54 up 25 min, 14 users,  load average: 3.12, 2.83, 2.34
 17:02:55 up 25 min, 14 users,  load average: 3.12, 2.83, 2.34
 17:02:56 up 25 min, 14 users,  load average: 3.03, 2.81, 2.34
 17:02:57 up 25 min, 14 users,  load average: 3.03, 2.81, 2.34
 17:02:58 up 25 min, 14 users,  load average: 3.03, 2.81, 2.34
 17:02:58 up 25 min, 14 users,  load average: 3.03, 2.81, 2.34
 17:02:59 up 25 min, 14 users,  load average: 3.03, 2.81, 2.34
 17:03:00 up 25 min, 14 users,  load average: 3.11, 2.83, 2.35
 17:03:01 up 25 min, 14 users,  load average: 3.11, 2.83, 2.35
 17:03:02 up 25 min, 14 users,  load average: 3.11, 2.83, 2.35
 17:03:03 up 25 min, 14 users,  load average: 3.11, 2.83, 2.35
 17:03:04 up 25 min, 14 users,  load average: 3.11, 2.83, 2.35
 17:03:05 up 25 min, 14 users,  load average: 3.11, 2.83, 2.35
 17:03:06 up 25 min, 14 users,  load average: 3.18, 2.85, 2.36
 17:03:07 up 25 min, 14 users,  load average: 3.18, 2.85, 2.36
 17:03:08 up 25 min, 14 users,  load average: 3.18, 2.85, 2.36
 17:03:09 up 25 min, 14 users,  load average: 3.18, 2.85, 2.36
 17:03:10 up 25 min, 14 users,  load average: 3.18, 2.85, 2.36
 17:03:10 up 25 min, 14 users,  load average: 3.01, 2.82, 2.35
 17:03:11 up 25 min, 14 users,  load average: 3.01, 2.82, 2.35
 17:03:12 up 25 min, 14 users,  load average: 3.01, 2.82, 2.35
 17:03:13 up 25 min, 14 users,  load average: 3.01, 2.82, 2.35
 17:03:13 up 25 min, 14 users,  load average: 3.01, 2.82, 2.35
 17:03:14 up 25 min, 14 users,  load average: 3.01, 2.82, 2.35
 17:03:15 up 25 min, 14 users,  load average: 3.01, 2.82, 2.35
 17:03:15 up 25 min, 14 users,  load average: 2.92, 2.81, 2.35
 17:03:16 up 25 min, 14 users,  load average: 2.92, 2.81, 2.35
 17:03:17 up 25 min, 14 users,  load average: 2.92, 2.81, 2.35
 17:03:18 up 25 min, 14 users,  load average: 2.92, 2.81, 2.35
 17:03:18 up 25 min, 14 users,  load average: 2.92, 2.81, 2.35
 17:03:19 up 25 min, 14 users,  load average: 2.92, 2.81, 2.35
 17:03:19 up 25 min, 14 users,  load average: 2.92, 2.81, 2.35
 17:03:20 up 25 min, 14 users,  load average: 2.92, 2.81, 2.35
 17:03:21 up 25 min, 14 users,  load average: 2.77, 2.77, 2.34
 17:03:22 up 25 min, 14 users,  load average: 2.77, 2.77, 2.34
 17:03:22 up 25 min, 14 users,  load average: 2.77, 2.77, 2.34
 17:03:23 up 25 min, 14 users,  load average: 2.77, 2.77, 2.34
 17:03:24 up 25 min, 14 users,  load average: 2.77, 2.77, 2.34
 17:03:24 up 25 min, 14 users,  load average: 2.77, 2.77, 2.34
 17:03:25 up 25 min, 14 users,  load average: 2.77, 2.77, 2.34
 17:03:25 up 26 min, 14 users,  load average: 2.71, 2.76, 2.34
 17:03:26 up 26 min, 14 users,  load average: 2.71, 2.76, 2.34
 17:03:27 up 26 min, 14 users,  load average: 2.71, 2.76, 2.34
 17:03:27 up 26 min, 14 users,  load average: 2.71, 2.76, 2.34
 17:03:28 up 26 min, 14 users,  load average: 2.71, 2.76, 2.34
 17:03:29 up 26 min, 14 users,  load average: 2.71, 2.76, 2.34
 17:03:29 up 26 min, 14 users,  load average: 2.71, 2.76, 2.34
 17:03:30 up 26 min, 14 users,  load average: 2.71, 2.76, 2.34
 17:03:31 up 26 min, 14 users,  load average: 2.57, 2.73, 2.33
 17:03:32 up 26 min, 14 users,  load average: 2.57, 2.73, 2.33
 17:03:32 up 26 min, 14 users,  load average: 2.57, 2.73, 2.33
 17:03:33 up 26 min, 14 users,  load average: 2.57, 2.73, 2.33
 17:03:33 up 26 min, 14 users,  load average: 2.57, 2.73, 2.33
 17:03:34 up 26 min, 14 users,  load average: 2.57, 2.73, 2.33
 17:03:35 up 26 min, 14 users,  load average: 2.53, 2.72, 2.33
 17:03:36 up 26 min, 14 users,  load average: 2.53, 2.72, 2.33
 17:03:37 up 26 min, 14 users,  load average: 2.53, 2.72, 2.33
 17:03:39 up 26 min, 14 users,  load average: 2.53, 2.72, 2.33
 17:03:40 up 26 min, 14 users,  load average: 2.53, 2.72, 2.33
 17:03:41 up 26 min, 14 users,  load average: 2.64, 2.74, 2.34
 17:03:42 up 26 min, 14 users,  load average: 2.64, 2.74, 2.34
 17:03:43 up 26 min, 14 users,  load average: 2.64, 2.74, 2.34
 17:03:44 up 26 min, 14 users,  load average: 2.64, 2.74, 2.34
 17:03:45 up 26 min, 15 users,  load average: 2.67, 2.75, 2.34
 17:03:47 up 26 min, 15 users,  load average: 2.67, 2.75, 2.34
 17:03:48 up 26 min, 15 users,  load average: 2.67, 2.75, 2.34
 17:03:49 up 26 min, 16 users,  load average: 2.67, 2.75, 2.34
 17:03:50 up 26 min, 16 users,  load average: 2.94, 2.80, 2.36
 17:03:52 up 26 min, 16 users,  load average: 2.94, 2.80, 2.36
 17:03:53 up 26 min, 16 users,  load average: 2.94, 2.80, 2.36
 17:03:54 up 26 min, 16 users,  load average: 2.94, 2.80, 2.36
 17:03:56 up 26 min, 16 users,  load average: 3.18, 2.85, 2.38
 17:03:57 up 26 min, 16 users,  load average: 3.18, 2.85, 2.38
 17:03:59 up 26 min, 16 users,  load average: 3.18, 2.85, 2.38
 17:04:01 up 26 min, 16 users,  load average: 3.41, 2.90, 2.40
 17:04:02 up 26 min, 16 users,  load average: 3.41, 2.90, 2.40
 17:04:04 up 26 min, 16 users,  load average: 3.41, 2.90, 2.40
 17:04:05 up 26 min, 16 users,  load average: 3.41, 2.90, 2.40
 17:04:06 up 26 min, 16 users,  load average: 3.70, 2.97, 2.42
 17:04:08 up 26 min, 16 users,  load average: 3.70, 2.97, 2.42
 17:04:10 up 26 min, 16 users,  load average: 3.70, 2.97, 2.42
 17:04:12 up 26 min, 16 users,  load average: 4.12, 3.07, 2.46
 17:04:14 up 26 min, 16 users,  load average: 4.12, 3.07, 2.46
 17:04:21 up 26 min, 16 users,  load average: 4.48, 3.18, 2.50
 17:04:23 up 26 min, 16 users,  load average: 4.48, 3.18, 2.50
 17:04:24 up 26 min, 16 users,  load average: 4.48, 3.18, 2.50
 17:04:26 up 27 min, 16 users,  load average: 4.44, 3.20, 2.51
 17:04:27 up 27 min, 16 users,  load average: 4.44, 3.20, 2.51
 17:04:28 up 27 min, 16 users,  load average: 4.44, 3.20, 2.51
 17:04:29 up 27 min, 16 users,  load average: 4.44, 3.20, 2.51
 17:04:30 up 27 min, 16 users,  load average: 4.73, 3.28, 2.54
 17:04:31 up 27 min, 16 users,  load average: 4.73, 3.28, 2.54
 17:04:33 up 27 min, 16 users,  load average: 4.73, 3.28, 2.54
 17:04:34 up 27 min, 16 users,  load average: 4.73, 3.28, 2.54
 17:04:36 up 27 min, 16 users,  load average: 4.91, 3.34, 2.56
 17:04:37 up 27 min, 16 users,  load average: 4.91, 3.34, 2.56
 17:04:38 up 27 min, 16 users,  load average: 4.91, 3.34, 2.56
 17:04:40 up 27 min, 16 users,  load average: 4.91, 3.34, 2.56
 17:04:41 up 27 min, 16 users,  load average: 5.00, 3.38, 2.58
 17:04:41 up 27 min, 16 users,  load average: 5.00, 3.38, 2.58
 17:04:42 up 27 min, 16 users,  load average: 5.00, 3.38, 2.58
 17:04:43 up 27 min, 16 users,  load average: 5.00, 3.38, 2.58
 17:04:44 up 27 min, 16 users,  load average: 5.00, 3.38, 2.58
 17:04:45 up 27 min, 16 users,  load average: 5.08, 3.43, 2.60
 17:04:46 up 27 min, 16 users,  load average: 5.08, 3.43, 2.60
 17:04:47 up 27 min, 16 users,  load average: 5.08, 3.43, 2.60
 17:04:48 up 27 min, 16 users,  load average: 5.08, 3.43, 2.60
 17:04:49 up 27 min, 16 users,  load average: 5.08, 3.43, 2.60
 17:04:50 up 27 min, 16 users,  load average: 5.08, 3.43, 2.60
 17:04:51 up 27 min, 16 users,  load average: 5.07, 3.45, 2.61
 17:04:51 up 27 min, 16 users,  load average: 5.07, 3.45, 2.61
 17:04:52 up 27 min, 16 users,  load average: 5.07, 3.45, 2.61
 17:04:53 up 27 min, 16 users,  load average: 5.07, 3.45, 2.61
 17:04:53 up 27 min, 16 users,  load average: 5.07, 3.45, 2.61
 17:04:54 up 27 min, 16 users,  load average: 5.07, 3.45, 2.61
 17:04:55 up 27 min, 16 users,  load average: 5.07, 3.45, 2.61
 17:04:55 up 27 min, 16 users,  load average: 4.98, 3.46, 2.62
 17:04:56 up 27 min, 16 users,  load average: 4.98, 3.46, 2.62
 17:04:57 up 27 min, 16 users,  load average: 4.98, 3.46, 2.62
 17:04:58 up 27 min, 16 users,  load average: 4.98, 3.46, 2.62
 17:04:58 up 27 min, 16 users,  load average: 4.98, 3.46, 2.62
 17:04:59 up 27 min, 16 users,  load average: 4.98, 3.46, 2.62
 17:05:00 up 27 min, 17 users,  load average: 4.98, 3.46, 2.62
 17:05:01 up 27 min, 17 users,  load average: 4.99, 3.49, 2.63
 17:05:02 up 27 min, 17 users,  load average: 4.99, 3.49, 2.63
 17:05:03 up 27 min, 17 users,  load average: 4.99, 3.49, 2.63
 17:05:04 up 27 min, 17 users,  load average: 4.99, 3.49, 2.63
 17:05:04 up 27 min, 17 users,  load average: 4.99, 3.49, 2.63
 17:05:05 up 27 min, 17 users,  load average: 4.91, 3.49, 2.64
 17:05:06 up 27 min, 17 users,  load average: 4.91, 3.49, 2.64
 17:05:07 up 27 min, 17 users,  load average: 4.91, 3.49, 2.64
 17:05:07 up 27 min, 17 users,  load average: 4.91, 3.49, 2.64
 17:05:08 up 27 min, 17 users,  load average: 4.91, 3.49, 2.64
 17:05:09 up 27 min, 17 users,  load average: 4.91, 3.49, 2.64
 17:05:10 up 27 min, 17 users,  load average: 4.91, 3.49, 2.64
 17:05:11 up 27 min, 17 users,  load average: 4.67, 3.47, 2.64
 17:05:12 up 27 min, 17 users,  load average: 4.67, 3.47, 2.64
 17:05:12 up 27 min, 17 users,  load average: 4.67, 3.47, 2.64
 17:05:13 up 27 min, 17 users,  load average: 4.67, 3.47, 2.64
 17:05:14 up 27 min, 17 users,  load average: 4.67, 3.47, 2.64
 17:05:15 up 27 min, 17 users,  load average: 4.62, 3.48, 2.64
 17:05:16 up 27 min, 17 users,  load average: 4.62, 3.48, 2.64
 17:05:17 up 27 min, 17 users,  load average: 4.62, 3.48, 2.64
 17:05:17 up 27 min, 17 users,  load average: 4.62, 3.48, 2.64
 17:05:18 up 27 min, 17 users,  load average: 4.62, 3.48, 2.64
 17:05:19 up 27 min, 17 users,  load average: 4.62, 3.48, 2.64
 17:05:20 up 27 min, 17 users,  load average: 4.62, 3.48, 2.64
 17:05:21 up 27 min, 17 users,  load average: 4.57, 3.49, 2.65
 17:05:21 up 27 min, 17 users,  load average: 4.57, 3.49, 2.65
 17:05:22 up 27 min, 17 users,  load average: 4.57, 3.49, 2.65
 17:05:23 up 27 min, 17 users,  load average: 4.57, 3.49, 2.65
 17:05:24 up 27 min, 17 users,  load average: 4.57, 3.49, 2.65
 17:05:25 up 27 min, 17 users,  load average: 4.57, 3.49, 2.65
 17:05:26 up 28 min, 17 users,  load average: 4.36, 3.46, 2.65
 17:05:27 up 28 min, 17 users,  load average: 4.36, 3.46, 2.65
 17:05:28 up 28 min, 17 users,  load average: 4.36, 3.46, 2.65
 17:05:28 up 28 min, 17 users,  load average: 4.36, 3.46, 2.65
 17:05:29 up 28 min, 17 users,  load average: 4.36, 3.46, 2.65
 17:05:30 up 28 min, 17 users,  load average: 4.36, 3.46, 2.65
 17:05:31 up 28 min, 17 users,  load average: 4.17, 3.44, 2.64
 17:05:31 up 28 min, 17 users,  load average: 4.17, 3.44, 2.64
 17:05:32 up 28 min, 17 users,  load average: 4.17, 3.44, 2.64
 17:05:33 up 28 min, 17 users,  load average: 4.17, 3.44, 2.64
 17:05:34 up 28 min, 17 users,  load average: 4.17, 3.44, 2.64
 17:05:35 up 28 min, 17 users,  load average: 4.17, 3.44, 2.64
 17:05:36 up 28 min, 17 users,  load average: 4.40, 3.50, 2.66
 17:05:37 up 28 min, 17 users,  load average: 4.40, 3.50, 2.66
 17:05:38 up 28 min, 17 users,  load average: 4.40, 3.50, 2.66
 17:05:39 up 28 min, 17 users,  load average: 4.40, 3.50, 2.66
 17:05:41 up 28 min, 17 users,  load average: 4.37, 3.50, 2.67
 17:05:42 up 28 min, 17 users,  load average: 4.37, 3.50, 2.67
 17:05:43 up 28 min, 17 users,  load average: 4.37, 3.50, 2.67
 17:05:44 up 28 min, 17 users,  load average: 4.37, 3.50, 2.67
 17:05:45 up 28 min, 17 users,  load average: 4.37, 3.50, 2.67
 17:05:46 up 28 min, 17 users,  load average: 4.26, 3.50, 2.67
 17:05:47 up 28 min, 17 users,  load average: 4.26, 3.50, 2.67
 17:05:48 up 28 min, 17 users,  load average: 4.26, 3.50, 2.67
 17:05:49 up 28 min, 17 users,  load average: 4.26, 3.50, 2.67
 17:05:50 up 28 min, 17 users,  load average: 4.26, 3.50, 2.67
 17:05:51 up 28 min, 17 users,  load average: 4.32, 3.52, 2.69
 17:05:52 up 28 min, 17 users,  load average: 4.32, 3.52, 2.69
 17:05:53 up 28 min, 17 users,  load average: 4.32, 3.52, 2.69
 17:05:55 up 28 min, 17 users,  load average: 4.32, 3.52, 2.69
 17:05:56 up 28 min, 17 users,  load average: 4.29, 3.53, 2.69
 17:05:57 up 28 min, 17 users,  load average: 4.29, 3.53, 2.69
 17:05:58 up 28 min, 17 users,  load average: 4.29, 3.53, 2.69
 17:05:59 up 28 min, 17 users,  load average: 4.29, 3.53, 2.69
 17:05:59 up 28 min, 17 users,  load average: 4.29, 3.53, 2.69
 17:06:00 up 28 min, 17 users,  load average: 4.29, 3.53, 2.69
 17:06:01 up 28 min, 17 users,  load average: 4.51, 3.59, 2.72
 17:06:02 up 28 min, 17 users,  load average: 4.51, 3.59, 2.72
 17:06:02 up 28 min, 17 users,  load average: 4.51, 3.59, 2.72
 17:06:03 up 28 min, 17 users,  load average: 4.51, 3.59, 2.72
 17:06:04 up 28 min, 17 users,  load average: 4.51, 3.59, 2.72
 17:06:05 up 28 min, 17 users,  load average: 4.51, 3.59, 2.72
 17:06:05 up 28 min, 17 users,  load average: 4.39, 3.58, 2.72
 17:06:06 up 28 min, 17 users,  load average: 4.39, 3.58, 2.72
 17:06:07 up 28 min, 17 users,  load average: 4.39, 3.58, 2.72
 17:06:08 up 28 min, 17 users,  load average: 4.39, 3.58, 2.72
 17:06:09 up 28 min, 17 users,  load average: 4.39, 3.58, 2.72
 17:06:10 up 28 min, 17 users,  load average: 4.39, 3.58, 2.72
 17:06:11 up 28 min, 17 users,  load average: 4.36, 3.58, 2.72
 17:06:12 up 28 min, 17 users,  load average: 4.36, 3.58, 2.72
 17:06:12 up 28 min, 17 users,  load average: 4.36, 3.58, 2.72
 17:06:13 up 28 min, 17 users,  load average: 4.36, 3.58, 2.72
 17:06:14 up 28 min, 17 users,  load average: 4.36, 3.58, 2.72
 17:06:15 up 28 min, 17 users,  load average: 4.36, 3.58, 2.72
 17:06:16 up 28 min, 17 users,  load average: 4.33, 3.59, 2.73
 17:06:16 up 28 min, 17 users,  load average: 4.33, 3.59, 2.73
 17:06:17 up 28 min, 17 users,  load average: 4.33, 3.59, 2.73
 17:06:18 up 28 min, 17 users,  load average: 4.33, 3.59, 2.73
 17:06:19 up 28 min, 17 users,  load average: 4.33, 3.59, 2.73
 17:06:19 up 28 min, 17 users,  load average: 4.33, 3.59, 2.73
 17:06:20 up 28 min, 17 users,  load average: 4.46, 3.63, 2.75
 17:06:22 up 28 min, 18 users,  load average: 4.46, 3.63, 2.75
 17:06:22 up 28 min, 18 users,  load average: 4.46, 3.63, 2.75
 17:06:23 up 28 min, 18 users,  load average: 4.46, 3.63, 2.75
 17:06:24 up 28 min, 18 users,  load average: 4.46, 3.63, 2.75
 17:06:25 up 28 min, 18 users,  load average: 4.46, 3.63, 2.75
 17:06:25 up 29 min, 18 users,  load average: 4.18, 3.58, 2.74
 17:06:26 up 29 min, 18 users,  load average: 4.18, 3.58, 2.74
 17:06:27 up 29 min, 18 users,  load average: 4.18, 3.58, 2.74
 17:06:27 up 29 min, 18 users,  load average: 4.18, 3.58, 2.74
 17:06:28 up 29 min, 18 users,  load average: 4.18, 3.58, 2.74
 17:06:28 up 29 min, 18 users,  load average: 4.18, 3.58, 2.74
 17:06:29 up 29 min, 18 users,  load average: 4.18, 3.58, 2.74
 17:06:30 up 29 min, 18 users,  load average: 4.18, 3.58, 2.74
 17:06:31 up 29 min, 18 users,  load average: 4.09, 3.58, 2.74
 17:06:31 up 29 min, 18 users,  load average: 4.09, 3.58, 2.74
 17:06:32 up 29 min, 18 users,  load average: 4.09, 3.58, 2.74
 17:06:33 up 29 min, 18 users,  load average: 4.09, 3.58, 2.74
 17:06:34 up 29 min, 18 users,  load average: 4.09, 3.58, 2.74
 17:06:35 up 29 min, 18 users,  load average: 4.09, 3.58, 2.74
 17:06:36 up 29 min, 18 users,  load average: 4.24, 3.62, 2.76
 17:06:37 up 29 min, 18 users,  load average: 4.24, 3.62, 2.76
 17:06:38 up 29 min, 17 users,  load average: 4.24, 3.62, 2.76
 17:06:39 up 29 min, 17 users,  load average: 4.24, 3.62, 2.76
 17:06:40 up 29 min, 17 users,  load average: 4.24, 3.62, 2.76
 17:06:41 up 29 min, 17 users,  load average: 4.30, 3.64, 2.77
 17:06:42 up 29 min, 17 users,  load average: 4.30, 3.64, 2.77
 17:06:43 up 29 min, 17 users,  load average: 4.30, 3.64, 2.77
 17:06:44 up 29 min, 17 users,  load average: 4.30, 3.64, 2.77
 17:06:45 up 29 min, 17 users,  load average: 4.30, 3.64, 2.77
 17:06:46 up 29 min, 17 users,  load average: 4.44, 3.68, 2.78
 17:06:47 up 29 min, 17 users,  load average: 4.44, 3.68, 2.78
 17:06:48 up 29 min, 17 users,  load average: 4.44, 3.68, 2.78
 17:06:49 up 29 min, 17 users,  load average: 4.44, 3.68, 2.78
 17:06:50 up 29 min, 17 users,  load average: 4.44, 3.68, 2.78
 17:06:51 up 29 min, 17 users,  load average: 4.64, 3.73, 2.81
 17:06:51 up 29 min, 17 users,  load average: 4.64, 3.73, 2.81
 17:06:52 up 29 min, 17 users,  load average: 4.64, 3.73, 2.81
 17:06:53 up 29 min, 17 users,  load average: 4.64, 3.73, 2.81
 17:06:54 up 29 min, 17 users,  load average: 4.64, 3.73, 2.81
 17:06:55 up 29 min, 17 users,  load average: 4.75, 3.77, 2.82
 17:06:56 up 29 min, 17 users,  load average: 4.75, 3.77, 2.82
 17:06:57 up 29 min, 17 users,  load average: 4.75, 3.77, 2.82
 17:06:58 up 29 min, 17 users,  load average: 4.75, 3.77, 2.82
 17:06:59 up 29 min, 17 users,  load average: 4.75, 3.77, 2.82
 17:07:00 up 29 min, 17 users,  load average: 4.75, 3.77, 2.82
 17:07:01 up 29 min, 17 users,  load average: 4.85, 3.81, 2.84
 17:07:02 up 29 min, 17 users,  load average: 4.85, 3.81, 2.84
 17:07:03 up 29 min, 17 users,  load average: 4.85, 3.81, 2.84
 17:07:04 up 29 min, 17 users,  load average: 4.85, 3.81, 2.84
 17:07:05 up 29 min, 17 users,  load average: 4.85, 3.81, 2.84
 17:07:05 up 29 min, 17 users,  load average: 4.54, 3.76, 2.83
 17:07:06 up 29 min, 17 users,  load average: 4.54, 3.76, 2.83
 17:07:07 up 29 min, 17 users,  load average: 4.54, 3.76, 2.83
 17:07:08 up 29 min, 17 users,  load average: 4.54, 3.76, 2.83
 17:07:08 up 29 min, 17 users,  load average: 4.54, 3.76, 2.83
 17:07:09 up 29 min, 17 users,  load average: 4.54, 3.76, 2.83
 17:07:10 up 29 min, 17 users,  load average: 4.54, 3.76, 2.83
 17:07:11 up 29 min, 17 users,  load average: 4.58, 3.78, 2.84
 17:07:12 up 29 min, 17 users,  load average: 4.58, 3.78, 2.84
 17:07:13 up 29 min, 17 users,  load average: 4.58, 3.78, 2.84
 17:07:14 up 29 min, 17 users,  load average: 4.58, 3.78, 2.84
 17:07:15 up 29 min, 17 users,  load average: 4.58, 3.78, 2.84
 17:07:16 up 29 min, 17 users,  load average: 4.61, 3.80, 2.85
 17:07:17 up 29 min, 17 users,  load average: 4.61, 3.80, 2.85
 17:07:17 up 29 min, 17 users,  load average: 4.61, 3.80, 2.85
 17:07:18 up 29 min, 17 users,  load average: 4.61, 3.80, 2.85
 17:07:19 up 29 min, 17 users,  load average: 4.61, 3.80, 2.85
 17:07:20 up 29 min, 17 users,  load average: 4.96, 3.89, 2.89
 17:07:21 up 29 min, 17 users,  load average: 4.96, 3.89, 2.89
 17:07:22 up 29 min, 17 users,  load average: 4.96, 3.89, 2.89
 17:07:23 up 29 min, 17 users,  load average: 4.96, 3.89, 2.89
 17:07:25 up 29 min, 17 users,  load average: 4.96, 3.89, 2.89
 17:07:26 up 30 min, 17 users,  load average: 4.97, 3.90, 2.90
 17:07:27 up 30 min, 17 users,  load average: 4.97, 3.90, 2.90
 17:07:29 up 30 min, 17 users,  load average: 4.97, 3.90, 2.90
 17:07:30 up 30 min, 17 users,  load average: 5.05, 3.94, 2.91
 17:07:31 up 30 min, 17 users,  load average: 5.05, 3.94, 2.91
 17:07:32 up 30 min, 17 users,  load average: 5.05, 3.94, 2.91
 17:07:33 up 30 min, 17 users,  load average: 5.05, 3.94, 2.91
 17:07:34 up 30 min, 17 users,  load average: 5.05, 3.94, 2.91
 17:07:35 up 30 min, 17 users,  load average: 5.12, 3.97, 2.93
 17:07:36 up 30 min, 17 users,  load average: 5.12, 3.97, 2.93
 17:07:37 up 30 min, 17 users,  load average: 5.12, 3.97, 2.93
 17:07:38 up 30 min, 17 users,  load average: 5.12, 3.97, 2.93
 17:07:39 up 30 min, 17 users,  load average: 5.12, 3.97, 2.93
 17:07:40 up 30 min, 17 users,  load average: 5.12, 3.97, 2.93
 17:07:41 up 30 min, 17 users,  load average: 5.27, 4.02, 2.95
 17:07:42 up 30 min, 17 users,  load average: 5.27, 4.02, 2.95
 17:07:43 up 30 min, 17 users,  load average: 5.27, 4.02, 2.95
 17:07:44 up 30 min, 17 users,  load average: 5.27, 4.02, 2.95
 17:07:46 up 30 min, 17 users,  load average: 5.25, 4.04, 2.96
 17:07:47 up 30 min, 17 users,  load average: 5.25, 4.04, 2.96
 17:07:48 up 30 min, 17 users,  load average: 5.25, 4.04, 2.96
 17:07:49 up 30 min, 17 users,  load average: 5.25, 4.04, 2.96
 17:07:51 up 30 min, 17 users,  load average: 5.15, 4.04, 2.97
 17:07:52 up 30 min, 17 users,  load average: 5.15, 4.04, 2.97
 17:07:53 up 30 min, 17 users,  load average: 5.15, 4.04, 2.97
 17:07:54 up 30 min, 17 users,  load average: 5.15, 4.04, 2.97
 17:07:56 up 30 min, 17 users,  load average: 5.38, 4.10, 2.99
 17:07:57 up 30 min, 17 users,  load average: 5.38, 4.10, 2.99
 17:07:59 up 30 min, 17 users,  load average: 5.38, 4.10, 2.99
 17:08:00 up 30 min, 17 users,  load average: 5.38, 4.10, 2.99
 17:08:01 up 30 min, 17 users,  load average: 5.51, 4.15, 3.02
 17:08:03 up 30 min, 17 users,  load average: 5.51, 4.15, 3.02
 17:08:04 up 30 min, 17 users,  load average: 5.51, 4.15, 3.02
 17:08:05 up 30 min, 17 users,  load average: 5.51, 4.15, 3.02
 17:08:06 up 30 min, 17 users,  load average: 5.47, 4.16, 3.03
 17:08:07 up 30 min, 17 users,  load average: 5.47, 4.16, 3.03
 17:08:08 up 30 min, 17 users,  load average: 5.47, 4.16, 3.03
 17:08:08 up 30 min, 17 users,  load average: 5.47, 4.16, 3.03
 17:08:09 up 30 min, 17 users,  load average: 5.47, 4.16, 3.03
 17:08:10 up 30 min, 17 users,  load average: 5.47, 4.16, 3.03
 17:08:10 up 30 min, 17 users,  load average: 5.11, 4.11, 3.01
 17:08:11 up 30 min, 17 users,  load average: 5.11, 4.11, 3.01
 17:08:12 up 30 min, 17 users,  load average: 5.11, 4.11, 3.01
 17:08:12 up 30 min, 17 users,  load average: 5.11, 4.11, 3.01
 17:08:13 up 30 min, 17 users,  load average: 5.11, 4.11, 3.01
 17:08:14 up 30 min, 17 users,  load average: 5.11, 4.11, 3.01
 17:08:14 up 30 min, 17 users,  load average: 5.11, 4.11, 3.01
 17:08:15 up 30 min, 17 users,  load average: 5.11, 4.11, 3.01
 17:08:16 up 30 min, 17 users,  load average: 4.94, 4.09, 3.01
 17:08:17 up 30 min, 17 users,  load average: 4.94, 4.09, 3.01
 17:08:17 up 30 min, 17 users,  load average: 4.94, 4.09, 3.01
 17:08:18 up 30 min, 17 users,  load average: 4.94, 4.09, 3.01
 17:08:19 up 30 min, 17 users,  load average: 4.94, 4.09, 3.01
 17:08:19 up 30 min, 17 users,  load average: 4.94, 4.09, 3.01
 17:08:20 up 30 min, 17 users,  load average: 4.94, 4.09, 3.01
 17:08:21 up 30 min, 17 users,  load average: 4.62, 4.04, 3.00
 17:08:21 up 30 min, 17 users,  load average: 4.62, 4.04, 3.00
 17:08:22 up 30 min, 17 users,  load average: 4.62, 4.04, 3.00
 17:08:22 up 30 min, 17 users,  load average: 4.62, 4.04, 3.00
 17:08:23 up 30 min, 17 users,  load average: 4.62, 4.04, 3.00
 17:08:24 up 30 min, 17 users,  load average: 4.62, 4.04, 3.00
 17:08:25 up 30 min, 17 users,  load average: 4.62, 4.04, 3.00
 17:08:25 up 31 min, 17 users,  load average: 4.49, 4.02, 3.00
 17:08:26 up 31 min, 17 users,  load average: 4.49, 4.02, 3.00
 17:08:27 up 31 min, 17 users,  load average: 4.49, 4.02, 3.00
 17:08:27 up 31 min, 17 users,  load average: 4.49, 4.02, 3.00
 17:08:28 up 31 min, 17 users,  load average: 4.49, 4.02, 3.00
 17:08:29 up 31 min, 17 users,  load average: 4.49, 4.02, 3.00
 17:08:29 up 31 min, 17 users,  load average: 4.49, 4.02, 3.00
 17:08:30 up 31 min, 17 users,  load average: 4.49, 4.02, 3.00
 17:08:31 up 31 min, 17 users,  load average: 4.37, 4.01, 3.00
 17:08:31 up 31 min, 17 users,  load average: 4.37, 4.01, 3.00
 17:08:32 up 31 min, 17 users,  load average: 4.37, 4.01, 3.00
 17:08:33 up 31 min, 17 users,  load average: 4.37, 4.01, 3.00
 17:08:33 up 31 min, 17 users,  load average: 4.37, 4.01, 3.00
 17:08:34 up 31 min, 17 users,  load average: 4.37, 4.01, 3.00
 17:08:34 up 31 min, 17 users,  load average: 4.37, 4.01, 3.00
 17:08:35 up 31 min, 17 users,  load average: 4.37, 4.01, 3.00
 17:08:36 up 31 min, 17 users,  load average: 4.18, 3.97, 3.00
 17:08:37 up 31 min, 17 users,  load average: 4.18, 3.97, 3.00
 17:08:37 up 31 min, 17 users,  load average: 4.18, 3.97, 3.00
 17:08:38 up 31 min, 17 users,  load average: 4.18, 3.97, 3.00
 17:08:39 up 31 min, 17 users,  load average: 4.18, 3.97, 3.00
 17:08:39 up 31 min, 17 users,  load average: 4.18, 3.97, 3.00
 17:08:40 up 31 min, 17 users,  load average: 4.18, 3.97, 3.00
 17:08:41 up 31 min, 17 users,  load average: 4.01, 3.94, 2.99
 17:08:42 up 31 min, 17 users,  load average: 4.01, 3.94, 2.99
 17:08:42 up 31 min, 17 users,  load average: 4.01, 3.94, 2.99
 17:08:43 up 31 min, 17 users,  load average: 4.01, 3.94, 2.99
 17:08:44 up 31 min, 17 users,  load average: 4.01, 3.94, 2.99
 17:08:44 up 31 min, 17 users,  load average: 4.01, 3.94, 2.99
 17:08:45 up 31 min, 17 users,  load average: 4.01, 3.94, 2.99
 17:08:46 up 31 min, 17 users,  load average: 3.85, 3.91, 2.99
 17:08:47 up 31 min, 17 users,  load average: 3.85, 3.91, 2.99
 17:08:47 up 31 min, 17 users,  load average: 3.85, 3.91, 2.99
 17:08:48 up 31 min, 17 users,  load average: 3.85, 3.91, 2.99
 17:08:49 up 31 min, 17 users,  load average: 3.85, 3.91, 2.99
 17:08:50 up 31 min, 17 users,  load average: 3.85, 3.91, 2.99
 17:08:51 up 31 min, 17 users,  load average: 3.94, 3.93, 3.00
 17:08:52 up 31 min, 17 users,  load average: 3.94, 3.93, 3.00
 17:08:54 up 31 min, 17 users,  load average: 3.94, 3.93, 3.00
 17:08:55 up 31 min, 17 users,  load average: 3.94, 3.93, 3.00
 17:08:56 up 31 min, 17 users,  load average: 3.94, 3.93, 3.00
 17:08:58 up 31 min, 17 users,  load average: 3.94, 3.93, 3.00
 17:08:59 up 31 min, 17 users,  load average: 3.94, 3.93, 3.00
 17:09:01 up 31 min, 17 users,  load average: 4.19, 3.98, 3.02
 17:09:03 up 31 min, 17 users,  load average: 4.19, 3.98, 3.02
 17:09:05 up 31 min, 17 users,  load average: 4.19, 3.98, 3.02
 17:09:07 up 31 min, 17 users,  load average: 4.17, 3.98, 3.03
 17:09:08 up 31 min, 17 users,  load average: 4.17, 3.98, 3.03
 17:09:10 up 31 min, 17 users,  load average: 4.17, 3.98, 3.03
 17:09:12 up 31 min, 17 users,  load average: 4.16, 3.98, 3.03
 17:09:13 up 31 min, 17 users,  load average: 4.16, 3.98, 3.03
 17:09:14 up 31 min, 17 users,  load average: 4.16, 3.98, 3.03
 17:09:16 up 31 min, 17 users,  load average: 4.31, 4.01, 3.05
 17:09:17 up 31 min, 17 users,  load average: 4.31, 4.01, 3.05
 17:09:19 up 31 min, 17 users,  load average: 4.31, 4.01, 3.05
 17:09:21 up 31 min, 17 users,  load average: 4.44, 4.04, 3.06
 17:09:22 up 31 min, 17 users,  load average: 4.44, 4.04, 3.06
 17:09:24 up 31 min, 17 users,  load average: 4.44, 4.04, 3.06
 17:09:25 up 32 min, 17 users,  load average: 4.57, 4.08, 3.08
 17:09:27 up 32 min, 17 users,  load average: 4.57, 4.08, 3.08
 17:09:28 up 32 min, 17 users,  load average: 4.57, 4.08, 3.08
 17:09:30 up 32 min, 17 users,  load average: 4.57, 4.08, 3.08
 17:09:36 up 32 min, 17 users,  load average: 4.47, 4.07, 3.09
 17:09:37 up 32 min, 17 users,  load average: 4.47, 4.07, 3.09
 17:09:37 up 32 min, 17 users,  load average: 4.47, 4.07, 3.09
 17:09:38 up 32 min, 17 users,  load average: 4.47, 4.07, 3.09
 17:09:39 up 32 min, 17 users,  load average: 4.47, 4.07, 3.09
 17:09:39 up 32 min, 17 users,  load average: 4.47, 4.07, 3.09
 17:09:40 up 32 min, 17 users,  load average: 4.47, 4.07, 3.09
 17:09:41 up 32 min, 17 users,  load average: 4.51, 4.09, 3.10
 17:09:42 up 32 min, 17 users,  load average: 4.51, 4.09, 3.10
 17:09:43 up 32 min, 17 users,  load average: 4.51, 4.09, 3.10
 17:09:44 up 32 min, 17 users,  load average: 4.51, 4.09, 3.10
 17:09:45 up 32 min, 17 users,  load average: 4.51, 4.09, 3.10
 17:09:46 up 32 min, 17 users,  load average: 4.39, 4.07, 3.10
 17:09:47 up 32 min, 17 users,  load average: 4.39, 4.07, 3.10
 17:09:48 up 32 min, 17 users,  load average: 4.39, 4.07, 3.10
 17:09:49 up 32 min, 17 users,  load average: 4.39, 4.07, 3.10
 17:09:50 up 32 min, 17 users,  load average: 4.39, 4.07, 3.10
 17:09:51 up 32 min, 17 users,  load average: 4.36, 4.07, 3.10
 17:09:52 up 32 min, 17 users,  load average: 4.36, 4.07, 3.10
 17:09:53 up 32 min, 17 users,  load average: 4.36, 4.07, 3.10
 17:09:54 up 32 min, 17 users,  load average: 4.36, 4.07, 3.10
 17:09:55 up 32 min, 17 users,  load average: 4.36, 4.07, 3.10
 17:09:56 up 32 min, 17 users,  load average: 4.41, 4.08, 3.11
 17:09:57 up 32 min, 17 users,  load average: 4.41, 4.08, 3.11
 17:09:58 up 32 min, 17 users,  load average: 4.41, 4.08, 3.11
 17:09:59 up 32 min, 17 users,  load average: 4.41, 4.08, 3.11
 17:10:00 up 32 min, 17 users,  load average: 4.41, 4.08, 3.11
 17:10:01 up 32 min, 17 users,  load average: 4.70, 4.15, 3.14
 17:10:02 up 32 min, 17 users,  load average: 4.70, 4.15, 3.14
 17:10:04 up 32 min, 17 users,  load average: 4.70, 4.15, 3.14
 17:10:05 up 32 min, 17 users,  load average: 4.70, 4.15, 3.14
 17:10:05 up 32 min, 17 users,  load average: 4.96, 4.21, 3.16
 17:10:06 up 32 min, 17 users,  load average: 4.96, 4.21, 3.16
 17:10:07 up 32 min, 17 users,  load average: 4.96, 4.21, 3.16
 17:10:08 up 32 min, 17 users,  load average: 4.96, 4.21, 3.16
 17:10:08 up 32 min, 17 users,  load average: 4.96, 4.21, 3.16
 17:10:09 up 32 min, 17 users,  load average: 4.96, 4.21, 3.16
 17:10:10 up 32 min, 17 users,  load average: 4.96, 4.21, 3.16
 17:10:10 up 32 min, 17 users,  load average: 4.89, 4.21, 3.17
 17:10:11 up 32 min, 17 users,  load average: 4.89, 4.21, 3.17
 17:10:12 up 32 min, 17 users,  load average: 4.89, 4.21, 3.17
 17:10:13 up 32 min, 17 users,  load average: 4.89, 4.21, 3.17
 17:10:14 up 32 min, 17 users,  load average: 4.89, 4.21, 3.17
 17:10:15 up 32 min, 17 users,  load average: 4.89, 4.21, 3.17
 17:10:16 up 32 min, 17 users,  load average: 4.73, 4.19, 3.17
 17:10:17 up 32 min, 17 users,  load average: 4.73, 4.19, 3.17
 17:10:17 up 32 min, 16 users,  load average: 4.73, 4.19, 3.17
 17:10:18 up 32 min, 16 users,  load average: 4.73, 4.19, 3.17
 17:10:19 up 32 min, 16 users,  load average: 4.73, 4.19, 3.17
 17:10:20 up 32 min, 16 users,  load average: 4.73, 4.19, 3.17
 17:10:20 up 32 min, 16 users,  load average: 4.68, 4.18, 3.17
 17:10:21 up 32 min, 16 users,  load average: 4.68, 4.18, 3.17
 17:10:22 up 32 min, 16 users,  load average: 4.68, 4.18, 3.17
 17:10:23 up 32 min, 16 users,  load average: 4.68, 4.18, 3.17
 17:10:24 up 32 min, 16 users,  load average: 4.68, 4.18, 3.17
 17:10:24 up 32 min, 16 users,  load average: 4.68, 4.18, 3.17
 17:10:25 up 33 min, 16 users,  load average: 4.54, 4.16, 3.17
 17:10:26 up 33 min, 16 users,  load average: 4.54, 4.16, 3.17
 17:10:27 up 33 min, 16 users,  load average: 4.54, 4.16, 3.17
 17:10:28 up 33 min, 16 users,  load average: 4.54, 4.16, 3.17
 17:10:29 up 33 min, 16 users,  load average: 4.54, 4.16, 3.17
 17:10:30 up 33 min, 16 users,  load average: 4.54, 4.16, 3.17
 17:10:30 up 33 min, 16 users,  load average: 4.26, 4.11, 3.16
 17:10:31 up 33 min, 16 users,  load average: 4.26, 4.11, 3.16
 17:10:32 up 33 min, 16 users,  load average: 4.26, 4.11, 3.16
 17:10:32 up 33 min, 16 users,  load average: 4.26, 4.11, 3.16
 17:10:33 up 33 min, 16 users,  load average: 4.26, 4.11, 3.16
 17:10:34 up 33 min, 16 users,  load average: 4.26, 4.11, 3.16
 17:10:34 up 33 min, 16 users,  load average: 4.26, 4.11, 3.16
 17:10:35 up 33 min, 16 users,  load average: 4.26, 4.11, 3.16
 17:10:36 up 33 min, 16 users,  load average: 4.08, 4.08, 3.15
 17:10:36 up 33 min, 16 users,  load average: 4.08, 4.08, 3.15
 17:10:37 up 33 min, 16 users,  load average: 4.08, 4.08, 3.15
 17:10:38 up 33 min, 16 users,  load average: 4.08, 4.08, 3.15
 17:10:39 up 33 min, 16 users,  load average: 4.08, 4.08, 3.15
 17:10:40 up 33 min, 16 users,  load average: 4.08, 4.08, 3.15
 17:10:42 up 33 min, 16 users,  load average: 3.83, 4.02, 3.14
 17:10:42 up 33 min, 16 users,  load average: 3.83, 4.02, 3.14
 17:10:43 up 33 min, 16 users,  load average: 3.83, 4.02, 3.14
 17:10:44 up 33 min, 16 users,  load average: 3.83, 4.02, 3.14
 17:10:45 up 33 min, 16 users,  load average: 3.83, 4.02, 3.14
 17:10:45 up 33 min, 16 users,  load average: 3.76, 4.01, 3.14
 17:10:46 up 33 min, 16 users,  load average: 3.76, 4.01, 3.14
 17:10:47 up 33 min, 16 users,  load average: 3.76, 4.01, 3.14
 17:10:47 up 33 min, 16 users,  load average: 3.76, 4.01, 3.14
 17:10:48 up 33 min, 16 users,  load average: 3.76, 4.01, 3.14
 17:10:49 up 33 min, 16 users,  load average: 3.76, 4.01, 3.14
 17:10:49 up 33 min, 16 users,  load average: 3.76, 4.01, 3.14
 17:10:50 up 33 min, 16 users,  load average: 3.76, 4.01, 3.14
 17:10:51 up 33 min, 16 users,  load average: 3.70, 3.99, 3.14
 17:10:52 up 33 min, 16 users,  load average: 3.70, 3.99, 3.14
 17:10:52 up 33 min, 16 users,  load average: 3.70, 3.99, 3.14
 17:10:53 up 33 min, 16 users,  load average: 3.70, 3.99, 3.14
 17:10:54 up 33 min, 16 users,  load average: 3.70, 3.99, 3.14
 17:10:55 up 33 min, 16 users,  load average: 3.70, 3.99, 3.14
 17:10:56 up 33 min, 16 users,  load average: 3.64, 3.97, 3.14
 17:10:57 up 33 min, 16 users,  load average: 3.64, 3.97, 3.14
 17:10:58 up 33 min, 16 users,  load average: 3.64, 3.97, 3.14
 17:10:59 up 33 min, 16 users,  load average: 3.64, 3.97, 3.14
 17:11:00 up 33 min, 16 users,  load average: 3.64, 3.97, 3.14
 17:11:01 up 33 min, 16 users,  load average: 3.83, 4.01, 3.15
 17:11:02 up 33 min, 16 users,  load average: 3.83, 4.01, 3.15
 17:11:02 up 33 min, 16 users,  load average: 3.83, 4.01, 3.15
