
 11:41:25 up 16:52, 19 users,  load average: 1.02, 1.45, 1.21
 11:41:26 up 16:52, 19 users,  load average: 1.02, 1.45, 1.21
 11:41:26 up 16:52, 19 users,  load average: 1.02, 1.45, 1.21
 11:41:27 up 16:52, 19 users,  load average: 1.02, 1.45, 1.21
 11:41:27 up 16:52, 19 users,  load average: 1.02, 1.45, 1.21
 11:41:27 up 16:52, 19 users,  load average: 1.02, 1.45, 1.21
 11:41:28 up 16:52, 19 users,  load average: 1.02, 1.45, 1.21
 11:41:28 up 16:52, 19 users,  load average: 1.02, 1.45, 1.21
 11:41:28 up 16:52, 19 users,  load average: 1.02, 1.45, 1.21
 11:41:29 up 16:52, 19 users,  load average: 1.02, 1.45, 1.21
 11:41:29 up 16:52, 19 users,  load average: 1.18, 1.47, 1.22
 11:41:29 up 16:52, 19 users,  load average: 1.18, 1.47, 1.22
 11:41:30 up 16:52, 19 users,  load average: 1.18, 1.47, 1.22
 11:41:30 up 16:52, 19 users,  load average: 1.18, 1.47, 1.22
 11:41:31 up 16:52, 19 users,  load average: 1.18, 1.47, 1.22
 11:41:31 up 16:52, 19 users,  load average: 1.18, 1.47, 1.22
 11:41:32 up 16:52, 19 users,  load average: 1.18, 1.47, 1.22
 11:41:32 up 16:52, 19 users,  load average: 1.18, 1.47, 1.22
 11:41:32 up 16:52, 19 users,  load average: 1.18, 1.47, 1.22
 11:41:33 up 16:52, 19 users,  load average: 1.18, 1.47, 1.22
 11:41:33 up 16:52, 19 users,  load average: 1.18, 1.47, 1.22
 11:41:33 up 16:52, 19 users,  load average: 1.18, 1.47, 1.22
 11:41:34 up 16:52, 19 users,  load average: 1.18, 1.47, 1.22
 11:41:34 up 16:52, 19 users,  load average: 1.33, 1.50, 1.22
 11:41:34 up 16:52, 19 users,  load average: 1.33, 1.50, 1.22
 11:41:35 up 16:52, 19 users,  load average: 1.33, 1.50, 1.22
 11:41:35 up 16:52, 19 users,  load average: 1.33, 1.50, 1.22
 11:41:36 up 16:52, 19 users,  load average: 1.33, 1.50, 1.22
 11:41:36 up 16:52, 19 users,  load average: 1.33, 1.50, 1.22
 11:41:36 up 16:52, 19 users,  load average: 1.33, 1.50, 1.22
 11:41:37 up 16:52, 19 users,  load average: 1.33, 1.50, 1.22
 11:41:37 up 16:52, 19 users,  load average: 1.33, 1.50, 1.22
 11:41:38 up 16:52, 19 users,  load average: 1.33, 1.50, 1.22
 11:41:38 up 16:52, 19 users,  load average: 1.33, 1.50, 1.22
 11:41:38 up 16:52, 19 users,  load average: 1.33, 1.50, 1.22
 11:41:39 up 16:52, 19 users,  load average: 1.33, 1.50, 1.22
 11:41:39 up 16:52, 19 users,  load average: 1.54, 1.54, 1.24
 11:41:39 up 16:52, 19 users,  load average: 1.54, 1.54, 1.24
 11:41:40 up 16:52, 19 users,  load average: 1.54, 1.54, 1.24
 11:41:40 up 16:52, 19 users,  load average: 1.54, 1.54, 1.24
 11:41:41 up 16:52, 19 users,  load average: 1.54, 1.54, 1.24
 11:41:41 up 16:52, 19 users,  load average: 1.54, 1.54, 1.24
 11:41:42 up 16:52, 19 users,  load average: 1.54, 1.54, 1.24
 11:41:42 up 16:52, 19 users,  load average: 1.54, 1.54, 1.24
 11:41:43 up 16:52, 19 users,  load average: 1.54, 1.54, 1.24
 11:41:43 up 16:52, 19 users,  load average: 1.54, 1.54, 1.24
 11:41:43 up 16:52, 19 users,  load average: 1.54, 1.54, 1.24
 11:41:44 up 16:52, 19 users,  load average: 1.54, 1.54, 1.24
 11:41:44 up 16:52, 19 users,  load average: 1.58, 1.54, 1.24
 11:41:45 up 16:52, 19 users,  load average: 1.58, 1.54, 1.24
 11:41:45 up 16:52, 19 users,  load average: 1.58, 1.54, 1.24
 11:41:45 up 16:52, 19 users,  load average: 1.58, 1.54, 1.24
 11:41:46 up 16:52, 19 users,  load average: 1.58, 1.54, 1.24
 11:41:46 up 16:52, 19 users,  load average: 1.58, 1.54, 1.24
 11:41:46 up 16:52, 19 users,  load average: 1.58, 1.54, 1.24
 11:41:47 up 16:52, 19 users,  load average: 1.58, 1.54, 1.24
 11:41:47 up 16:53, 19 users,  load average: 1.58, 1.54, 1.24
 11:41:47 up 16:53, 19 users,  load average: 1.58, 1.54, 1.24
 11:41:48 up 16:53, 19 users,  load average: 1.58, 1.54, 1.24
 11:41:48 up 16:53, 19 users,  load average: 1.58, 1.54, 1.24
 11:41:49 up 16:53, 19 users,  load average: 1.58, 1.54, 1.24
 11:41:49 up 16:53, 19 users,  load average: 1.69, 1.57, 1.25
 11:41:50 up 16:53, 19 users,  load average: 1.69, 1.57, 1.25
 11:41:50 up 16:53, 19 users,  load average: 1.69, 1.57, 1.25
 11:41:50 up 16:53, 19 users,  load average: 1.69, 1.57, 1.25
 11:41:51 up 16:53, 19 users,  load average: 1.69, 1.57, 1.25
 11:41:51 up 16:53, 19 users,  load average: 1.69, 1.57, 1.25
 11:41:51 up 16:53, 19 users,  load average: 1.69, 1.57, 1.25
 11:41:52 up 16:53, 19 users,  load average: 1.69, 1.57, 1.25
 11:41:52 up 16:53, 19 users,  load average: 1.69, 1.57, 1.25
 11:41:52 up 16:53, 19 users,  load average: 1.69, 1.57, 1.25
 11:41:53 up 16:53, 19 users,  load average: 1.69, 1.57, 1.25
 11:41:53 up 16:53, 19 users,  load average: 1.69, 1.57, 1.25
 11:41:54 up 16:53, 19 users,  load average: 1.69, 1.57, 1.25
 11:41:54 up 16:53, 19 users,  load average: 1.69, 1.57, 1.25
 11:41:54 up 16:53, 19 users,  load average: 1.63, 1.56, 1.25
 11:41:55 up 16:53, 19 users,  load average: 1.63, 1.56, 1.25
 11:41:55 up 16:53, 19 users,  load average: 1.63, 1.56, 1.25
 11:41:56 up 16:53, 19 users,  load average: 1.63, 1.56, 1.25
 11:41:56 up 16:53, 19 users,  load average: 1.63, 1.56, 1.25
 11:41:56 up 16:53, 19 users,  load average: 1.63, 1.56, 1.25
 11:41:57 up 16:53, 19 users,  load average: 1.63, 1.56, 1.25
 11:41:57 up 16:53, 19 users,  load average: 1.63, 1.56, 1.25
 11:41:57 up 16:53, 19 users,  load average: 1.63, 1.56, 1.25
 11:41:58 up 16:53, 19 users,  load average: 1.63, 1.56, 1.25
 11:41:58 up 16:53, 19 users,  load average: 1.63, 1.56, 1.25
 11:41:58 up 16:53, 19 users,  load average: 1.63, 1.56, 1.25
 11:41:59 up 16:53, 19 users,  load average: 1.63, 1.56, 1.25
 11:41:59 up 16:53, 19 users,  load average: 1.74, 1.58, 1.26
 11:42:00 up 16:53, 19 users,  load average: 1.74, 1.58, 1.26
 11:42:00 up 16:53, 19 users,  load average: 1.74, 1.58, 1.26
 11:42:01 up 16:53, 19 users,  load average: 1.74, 1.58, 1.26
 11:42:01 up 16:53, 19 users,  load average: 1.74, 1.58, 1.26
 11:42:01 up 16:53, 19 users,  load average: 1.74, 1.58, 1.26
 11:42:02 up 16:53, 19 users,  load average: 1.74, 1.58, 1.26
 11:42:02 up 16:53, 19 users,  load average: 1.74, 1.58, 1.26
 11:42:02 up 16:53, 19 users,  load average: 1.74, 1.58, 1.26
 11:42:03 up 16:53, 19 users,  load average: 1.74, 1.58, 1.26
 11:42:03 up 16:53, 19 users,  load average: 1.74, 1.58, 1.26
 11:42:03 up 16:53, 19 users,  load average: 1.74, 1.58, 1.26
 11:42:04 up 16:53, 19 users,  load average: 1.74, 1.58, 1.26
 11:42:04 up 16:53, 19 users,  load average: 1.76, 1.59, 1.26
 11:42:05 up 16:53, 19 users,  load average: 1.76, 1.59, 1.26
 11:42:05 up 16:53, 19 users,  load average: 1.76, 1.59, 1.26
 11:42:05 up 16:53, 19 users,  load average: 1.76, 1.59, 1.26
 11:42:06 up 16:53, 19 users,  load average: 1.76, 1.59, 1.26
 11:42:06 up 16:53, 19 users,  load average: 1.76, 1.59, 1.26
 11:42:07 up 16:53, 19 users,  load average: 1.76, 1.59, 1.26
 11:42:07 up 16:53, 19 users,  load average: 1.76, 1.59, 1.26
 11:42:07 up 16:53, 19 users,  load average: 1.76, 1.59, 1.26
 11:42:08 up 16:53, 19 users,  load average: 1.76, 1.59, 1.26
 11:42:08 up 16:53, 19 users,  load average: 1.76, 1.59, 1.26
 11:42:08 up 16:53, 19 users,  load average: 1.76, 1.59, 1.26
 11:42:09 up 16:53, 19 users,  load average: 1.76, 1.59, 1.26
 11:42:09 up 16:53, 19 users,  load average: 1.78, 1.60, 1.27
 11:42:10 up 16:53, 19 users,  load average: 1.78, 1.60, 1.27
 11:42:11 up 16:53, 19 users,  load average: 1.78, 1.60, 1.27
 11:42:11 up 16:53, 19 users,  load average: 1.78, 1.60, 1.27
 11:42:12 up 16:53, 19 users,  load average: 1.78, 1.60, 1.27
 11:42:12 up 16:53, 19 users,  load average: 1.78, 1.60, 1.27
 11:42:13 up 16:53, 19 users,  load average: 1.78, 1.60, 1.27
 11:42:13 up 16:53, 19 users,  load average: 1.78, 1.60, 1.27
 11:42:14 up 16:53, 19 users,  load average: 1.78, 1.60, 1.27
 11:42:14 up 16:53, 19 users,  load average: 1.80, 1.60, 1.27
 11:42:15 up 16:53, 19 users,  load average: 1.80, 1.60, 1.27
 11:42:15 up 16:53, 19 users,  load average: 1.80, 1.60, 1.27
 11:42:16 up 16:53, 19 users,  load average: 1.80, 1.60, 1.27
 11:42:16 up 16:53, 19 users,  load average: 1.80, 1.60, 1.27
 11:42:16 up 16:53, 19 users,  load average: 1.80, 1.60, 1.27
 11:42:17 up 16:53, 19 users,  load average: 1.80, 1.60, 1.27
 11:42:17 up 16:53, 19 users,  load average: 1.80, 1.60, 1.27
 11:42:17 up 16:53, 19 users,  load average: 1.80, 1.60, 1.27
 11:42:18 up 16:53, 19 users,  load average: 1.80, 1.60, 1.27
 11:42:18 up 16:53, 19 users,  load average: 1.80, 1.60, 1.27
 11:42:19 up 16:53, 19 users,  load average: 1.80, 1.60, 1.27
 11:42:19 up 16:53, 19 users,  load average: 1.89, 1.62, 1.28
 11:42:19 up 16:53, 19 users,  load average: 1.89, 1.62, 1.28
 11:42:20 up 16:53, 19 users,  load average: 1.89, 1.62, 1.28
 11:42:20 up 16:53, 19 users,  load average: 1.89, 1.62, 1.28
 11:42:21 up 16:53, 19 users,  load average: 1.89, 1.62, 1.28
 11:42:21 up 16:53, 19 users,  load average: 1.89, 1.62, 1.28
 11:42:21 up 16:53, 19 users,  load average: 1.89, 1.62, 1.28
 11:42:22 up 16:53, 19 users,  load average: 1.89, 1.62, 1.28
 11:42:22 up 16:53, 19 users,  load average: 1.89, 1.62, 1.28
 11:42:22 up 16:53, 19 users,  load average: 1.89, 1.62, 1.28
 11:42:23 up 16:53, 19 users,  load average: 1.89, 1.62, 1.28
 11:42:23 up 16:53, 19 users,  load average: 1.89, 1.62, 1.28
 11:42:24 up 16:53, 19 users,  load average: 1.89, 1.62, 1.28
 11:42:24 up 16:53, 19 users,  load average: 1.89, 1.62, 1.28
 11:42:24 up 16:53, 19 users,  load average: 1.98, 1.65, 1.29
 11:42:25 up 16:53, 19 users,  load average: 1.98, 1.65, 1.29
 11:42:25 up 16:53, 19 users,  load average: 1.98, 1.65, 1.29
 11:42:26 up 16:53, 19 users,  load average: 1.98, 1.65, 1.29
 11:42:26 up 16:53, 19 users,  load average: 1.98, 1.65, 1.29
 11:42:26 up 16:53, 19 users,  load average: 1.98, 1.65, 1.29
 11:42:27 up 16:53, 19 users,  load average: 1.98, 1.65, 1.29
 11:42:27 up 16:53, 19 users,  load average: 1.98, 1.65, 1.29
 11:42:27 up 16:53, 19 users,  load average: 1.98, 1.65, 1.29
 11:42:28 up 16:53, 19 users,  load average: 1.98, 1.65, 1.29
 11:42:28 up 16:53, 19 users,  load average: 1.98, 1.65, 1.29
 11:42:29 up 16:53, 19 users,  load average: 1.98, 1.65, 1.29
 11:42:29 up 16:53, 19 users,  load average: 1.98, 1.65, 1.29
 11:42:29 up 16:53, 19 users,  load average: 1.98, 1.65, 1.29
 11:42:30 up 16:53, 19 users,  load average: 1.98, 1.65, 1.29
 11:42:30 up 16:53, 19 users,  load average: 1.98, 1.65, 1.29
 11:42:31 up 16:53, 19 users,  load average: 1.98, 1.65, 1.29
 11:42:31 up 16:53, 19 users,  load average: 1.98, 1.65, 1.29
 11:42:31 up 16:53, 19 users,  load average: 1.98, 1.65, 1.29
 11:42:32 up 16:53, 19 users,  load average: 1.98, 1.65, 1.29
 11:42:32 up 16:53, 19 users,  load average: 1.98, 1.65, 1.29
 11:42:32 up 16:53, 19 users,  load average: 1.98, 1.65, 1.29
 11:42:33 up 16:53, 19 users,  load average: 1.98, 1.65, 1.29
 11:42:33 up 16:53, 19 users,  load average: 1.98, 1.65, 1.29
 11:42:34 up 16:53, 19 users,  load average: 1.98, 1.65, 1.29
 11:42:34 up 16:53, 19 users,  load average: 1.98, 1.65, 1.29
 11:42:34 up 16:53, 19 users,  load average: 1.83, 1.62, 1.29
 11:42:35 up 16:53, 19 users,  load average: 1.83, 1.62, 1.29
 11:42:35 up 16:53, 19 users,  load average: 1.83, 1.62, 1.29
 11:42:35 up 16:53, 19 users,  load average: 1.83, 1.62, 1.29
 11:42:36 up 16:53, 19 users,  load average: 1.83, 1.62, 1.29
